2013-08-22 09:50:13 overwrite styles/verville.css 
2013-08-22 09:50:29 overwrite styles/verville.css 
2013-08-22 09:51:02 overwrite styles/verville.css 
2013-08-22 09:52:18 overwrite styles/verville.css 
2013-08-22 09:52:57 overwrite styles/verville.css 
2013-08-22 09:58:22 overwrite styles/verville.css 
2013-08-22 10:11:04 overwrite styles/verville.css 
2013-08-22 10:12:42 overwrite styles/verville.css 
2013-08-22 10:53:08 overwrite styles/verville.css 
2013-08-22 11:40:35 overwrite styles/verville.css 
2013-08-22 11:40:44 overwrite styles/verville.css 
2013-08-22 11:42:02 overwrite styles/verville.css 
2013-08-22 11:43:19 overwrite styles/verville.css 
2013-08-22 13:30:02 overwrite styles/verville.css 
2013-08-22 13:30:30 overwrite styles/verville.css 
